^C:\USERS\MAGSHIMIM\DOCUMENTS\PROGRAMMING\ADVANCED PROGRAMMING\LESSON 6\PART 1\PART 1\BASIC_CALC.CPP|C:\USERS\MAGSHIMIM\DOCUMENTS\PROGRAMMING\ADVANCED PROGRAMMING\LESSON 6\PART 1\PART 1\EXCEP_CALC.CPP
C:\USERS\MAGSHIMIM\DOCUMENTS\PROGRAMMING\ADVANCED PROGRAMMING\LESSON 6\PART 1\PART 1\DEBUG\VC141.PDB
C:\USERS\MAGSHIMIM\DOCUMENTS\PROGRAMMING\ADVANCED PROGRAMMING\LESSON 6\PART 1\PART 1\DEBUG\VC141.IDB
C:\USERS\MAGSHIMIM\DOCUMENTS\PROGRAMMING\ADVANCED PROGRAMMING\LESSON 6\PART 1\PART 1\DEBUG\EXCEP_CALC.OBJ
C:\USERS\MAGSHIMIM\DOCUMENTS\PROGRAMMING\ADVANCED PROGRAMMING\LESSON 6\PART 1\PART 1\DEBUG\BASIC_CALC.OBJ
^C:\USERS\MAGSHIMIM\DOCUMENTS\PROGRAMMING\ADVANCED PROGRAMMING\LESSON 6\PART 1\PART 1\EXCEP_CALC.CPP
C:\USERS\MAGSHIMIM\DOCUMENTS\PROGRAMMING\ADVANCED PROGRAMMING\LESSON 6\PART 1\PART 1\DEBUG\VC141.PDB
C:\USERS\MAGSHIMIM\DOCUMENTS\PROGRAMMING\ADVANCED PROGRAMMING\LESSON 6\PART 1\PART 1\DEBUG\VC141.IDB
C:\USERS\MAGSHIMIM\DOCUMENTS\PROGRAMMING\ADVANCED PROGRAMMING\LESSON 6\PART 1\PART 1\DEBUG\EXCEP_CALC.OBJ
^C:\USERS\MAGSHIMIM\DOCUMENTS\PROGRAMMING\ADVANCED PROGRAMMING\LESSON 6\PART 1\PART 1\BASIC_CALC.CPP
C:\USERS\MAGSHIMIM\DOCUMENTS\PROGRAMMING\ADVANCED PROGRAMMING\LESSON 6\PART 1\PART 1\DEBUG\VC141.PDB
C:\USERS\MAGSHIMIM\DOCUMENTS\PROGRAMMING\ADVANCED PROGRAMMING\LESSON 6\PART 1\PART 1\DEBUG\VC141.IDB
C:\USERS\MAGSHIMIM\DOCUMENTS\PROGRAMMING\ADVANCED PROGRAMMING\LESSON 6\PART 1\PART 1\DEBUG\BASIC_CALC.OBJ
