^C:\USERS\MAGSHIMIM\DOCUMENTS\PROGRAMMING\ADVANCED PROGRAMMING\LESSON 6\PART 1\PART 1\DEBUG\BASIC_CALC.OBJ|C:\USERS\MAGSHIMIM\DOCUMENTS\PROGRAMMING\ADVANCED PROGRAMMING\LESSON 6\PART 1\PART 1\DEBUG\EXCEP_CALC.OBJ
C:\USERS\MAGSHIMIM\DOCUMENTS\PROGRAMMING\ADVANCED PROGRAMMING\LESSON 6\PART 1\DEBUG\PART 1.EXE
C:\USERS\MAGSHIMIM\DOCUMENTS\PROGRAMMING\ADVANCED PROGRAMMING\LESSON 6\PART 1\DEBUG\PART 1.ILK
C:\USERS\MAGSHIMIM\DOCUMENTS\PROGRAMMING\ADVANCED PROGRAMMING\LESSON 6\PART 1\DEBUG\PART 1.PDB
