^C:\USERS\MAGSHIMIM\DOCUMENTS\PROGRAMMING\ADVANCED PROGRAMMING\LESSON 6\PART2\PART2\SHAPE.CPP
/c /ZI /nologo /W3 /WX- /diagnostics:classic /sdl /Od /Oy- /D _MBCS /Gm- /EHsc /RTC1 /MDd /GS /fp:precise /permissive- /Zc:wchar_t /Zc:forScope /Zc:inline /Fo"DEBUG\\" /Fd"DEBUG\VC141.PDB" /Gd /TP /analyze- /FC C:\USERS\MAGSHIMIM\DOCUMENTS\PROGRAMMING\ADVANCED PROGRAMMING\LESSON 6\PART2\PART2\SHAPE.CPP
^C:\USERS\MAGSHIMIM\DOCUMENTS\PROGRAMMING\ADVANCED PROGRAMMING\LESSON 6\PART2\PART2\RECTANGLE.CPP
/c /ZI /nologo /W3 /WX- /diagnostics:classic /sdl /Od /Oy- /D _MBCS /Gm- /EHsc /RTC1 /MDd /GS /fp:precise /permissive- /Zc:wchar_t /Zc:forScope /Zc:inline /Fo"DEBUG\\" /Fd"DEBUG\VC141.PDB" /Gd /TP /analyze- /FC C:\USERS\MAGSHIMIM\DOCUMENTS\PROGRAMMING\ADVANCED PROGRAMMING\LESSON 6\PART2\PART2\RECTANGLE.CPP
^C:\USERS\MAGSHIMIM\DOCUMENTS\PROGRAMMING\ADVANCED PROGRAMMING\LESSON 6\PART2\PART2\INPUTEXCEPTION.CPP
/c /ZI /nologo /W3 /WX- /diagnostics:classic /sdl /Od /Oy- /D _MBCS /Gm- /EHsc /RTC1 /MDd /GS /fp:precise /permissive- /Zc:wchar_t /Zc:forScope /Zc:inline /Fo"DEBUG\\" /Fd"DEBUG\VC141.PDB" /Gd /TP /analyze- /FC C:\USERS\MAGSHIMIM\DOCUMENTS\PROGRAMMING\ADVANCED PROGRAMMING\LESSON 6\PART2\PART2\INPUTEXCEPTION.CPP
^C:\USERS\MAGSHIMIM\DOCUMENTS\PROGRAMMING\ADVANCED PROGRAMMING\LESSON 6\PART2\PART2\MATHUTILS.CPP
/c /ZI /nologo /W3 /WX- /diagnostics:classic /sdl /Od /Oy- /D _MBCS /Gm- /EHsc /RTC1 /MDd /GS /fp:precise /permissive- /Zc:wchar_t /Zc:forScope /Zc:inline /Fo"DEBUG\\" /Fd"DEBUG\VC141.PDB" /Gd /TP /analyze- /FC C:\USERS\MAGSHIMIM\DOCUMENTS\PROGRAMMING\ADVANCED PROGRAMMING\LESSON 6\PART2\PART2\MATHUTILS.CPP
^C:\USERS\MAGSHIMIM\DOCUMENTS\PROGRAMMING\ADVANCED PROGRAMMING\LESSON 6\PART2\PART2\CIRCLE.CPP
/c /ZI /nologo /W3 /WX- /diagnostics:classic /sdl /Od /Oy- /D _MBCS /Gm- /EHsc /RTC1 /MDd /GS /fp:precise /permissive- /Zc:wchar_t /Zc:forScope /Zc:inline /Fo"DEBUG\\" /Fd"DEBUG\VC141.PDB" /Gd /TP /analyze- /FC C:\USERS\MAGSHIMIM\DOCUMENTS\PROGRAMMING\ADVANCED PROGRAMMING\LESSON 6\PART2\PART2\CIRCLE.CPP
^C:\USERS\MAGSHIMIM\DOCUMENTS\PROGRAMMING\ADVANCED PROGRAMMING\LESSON 6\PART2\PART2\PARALLELOGRAM.CPP
/c /ZI /nologo /W3 /WX- /diagnostics:classic /sdl /Od /Oy- /D _MBCS /Gm- /EHsc /RTC1 /MDd /GS /fp:precise /permissive- /Zc:wchar_t /Zc:forScope /Zc:inline /Fo"DEBUG\\" /Fd"DEBUG\VC141.PDB" /Gd /TP /analyze- /FC C:\USERS\MAGSHIMIM\DOCUMENTS\PROGRAMMING\ADVANCED PROGRAMMING\LESSON 6\PART2\PART2\PARALLELOGRAM.CPP
^C:\USERS\MAGSHIMIM\DOCUMENTS\PROGRAMMING\ADVANCED PROGRAMMING\LESSON 6\PART2\PART2\QUADRILATERAL.CPP
/c /ZI /nologo /W3 /WX- /diagnostics:classic /sdl /Od /Oy- /D _MBCS /Gm- /EHsc /RTC1 /MDd /GS /fp:precise /permissive- /Zc:wchar_t /Zc:forScope /Zc:inline /Fo"DEBUG\\" /Fd"DEBUG\VC141.PDB" /Gd /TP /analyze- /FC C:\USERS\MAGSHIMIM\DOCUMENTS\PROGRAMMING\ADVANCED PROGRAMMING\LESSON 6\PART2\PART2\QUADRILATERAL.CPP
^C:\USERS\MAGSHIMIM\DOCUMENTS\PROGRAMMING\ADVANCED PROGRAMMING\LESSON 6\PART2\PART2\HEXAGON.CPP
/c /ZI /nologo /W3 /WX- /diagnostics:classic /sdl /Od /Oy- /D _MBCS /Gm- /EHsc /RTC1 /MDd /GS /fp:precise /permissive- /Zc:wchar_t /Zc:forScope /Zc:inline /Fo"DEBUG\\" /Fd"DEBUG\VC141.PDB" /Gd /TP /analyze- /FC C:\USERS\MAGSHIMIM\DOCUMENTS\PROGRAMMING\ADVANCED PROGRAMMING\LESSON 6\PART2\PART2\HEXAGON.CPP
^C:\USERS\MAGSHIMIM\DOCUMENTS\PROGRAMMING\ADVANCED PROGRAMMING\LESSON 6\PART2\PART2\PENTAGON.CPP
/c /ZI /nologo /W3 /WX- /diagnostics:classic /sdl /Od /Oy- /D _MBCS /Gm- /EHsc /RTC1 /MDd /GS /fp:precise /permissive- /Zc:wchar_t /Zc:forScope /Zc:inline /Fo"DEBUG\\" /Fd"DEBUG\VC141.PDB" /Gd /TP /analyze- /FC C:\USERS\MAGSHIMIM\DOCUMENTS\PROGRAMMING\ADVANCED PROGRAMMING\LESSON 6\PART2\PART2\PENTAGON.CPP
^C:\USERS\MAGSHIMIM\DOCUMENTS\PROGRAMMING\ADVANCED PROGRAMMING\LESSON 6\PART2\PART2\MAIN.CPP
/c /ZI /nologo /W3 /WX- /diagnostics:classic /sdl /Od /Oy- /D _MBCS /Gm- /EHsc /RTC1 /MDd /GS /fp:precise /permissive- /Zc:wchar_t /Zc:forScope /Zc:inline /Fo"DEBUG\\" /Fd"DEBUG\VC141.PDB" /Gd /TP /analyze- /FC C:\USERS\MAGSHIMIM\DOCUMENTS\PROGRAMMING\ADVANCED PROGRAMMING\LESSON 6\PART2\PART2\MAIN.CPP
