^C:\USERS\MAGSHIMIM\DOCUMENTS\PROGRAMMING\ADVANCED PROGRAMMING\LESSON 6\PART2\PART2\CIRCLE.CPP|C:\USERS\MAGSHIMIM\DOCUMENTS\PROGRAMMING\ADVANCED PROGRAMMING\LESSON 6\PART2\PART2\MAIN.CPP|C:\USERS\MAGSHIMIM\DOCUMENTS\PROGRAMMING\ADVANCED PROGRAMMING\LESSON 6\PART2\PART2\PARALLELOGRAM.CPP|C:\USERS\MAGSHIMIM\DOCUMENTS\PROGRAMMING\ADVANCED PROGRAMMING\LESSON 6\PART2\PART2\QUADRILATERAL.CPP|C:\USERS\MAGSHIMIM\DOCUMENTS\PROGRAMMING\ADVANCED PROGRAMMING\LESSON 6\PART2\PART2\RECTANGLE.CPP|C:\USERS\MAGSHIMIM\DOCUMENTS\PROGRAMMING\ADVANCED PROGRAMMING\LESSON 6\PART2\PART2\SHAPE.CPP
C:\USERS\MAGSHIMIM\DOCUMENTS\PROGRAMMING\ADVANCED PROGRAMMING\LESSON 6\PART2\PART2\DEBUG\VC141.PDB
C:\USERS\MAGSHIMIM\DOCUMENTS\PROGRAMMING\ADVANCED PROGRAMMING\LESSON 6\PART2\PART2\DEBUG\VC141.IDB
C:\USERS\MAGSHIMIM\DOCUMENTS\PROGRAMMING\ADVANCED PROGRAMMING\LESSON 6\PART2\PART2\DEBUG\SHAPE.OBJ
C:\USERS\MAGSHIMIM\DOCUMENTS\PROGRAMMING\ADVANCED PROGRAMMING\LESSON 6\PART2\PART2\DEBUG\RECTANGLE.OBJ
C:\USERS\MAGSHIMIM\DOCUMENTS\PROGRAMMING\ADVANCED PROGRAMMING\LESSON 6\PART2\PART2\DEBUG\QUADRILATERAL.OBJ
C:\USERS\MAGSHIMIM\DOCUMENTS\PROGRAMMING\ADVANCED PROGRAMMING\LESSON 6\PART2\PART2\DEBUG\PARALLELOGRAM.OBJ
C:\USERS\MAGSHIMIM\DOCUMENTS\PROGRAMMING\ADVANCED PROGRAMMING\LESSON 6\PART2\PART2\DEBUG\MAIN.OBJ
C:\USERS\MAGSHIMIM\DOCUMENTS\PROGRAMMING\ADVANCED PROGRAMMING\LESSON 6\PART2\PART2\DEBUG\CIRCLE.OBJ
^C:\USERS\MAGSHIMIM\DOCUMENTS\PROGRAMMING\ADVANCED PROGRAMMING\LESSON 6\PART2\PART2\SHAPE.CPP
C:\USERS\MAGSHIMIM\DOCUMENTS\PROGRAMMING\ADVANCED PROGRAMMING\LESSON 6\PART2\PART2\DEBUG\VC141.PDB
^C:\USERS\MAGSHIMIM\DOCUMENTS\PROGRAMMING\ADVANCED PROGRAMMING\LESSON 6\PART2\PART2\CIRCLE.CPP|C:\USERS\MAGSHIMIM\DOCUMENTS\PROGRAMMING\ADVANCED PROGRAMMING\LESSON 6\PART2\PART2\MAIN.CPP|C:\USERS\MAGSHIMIM\DOCUMENTS\PROGRAMMING\ADVANCED PROGRAMMING\LESSON 6\PART2\PART2\PARALLELOGRAM.CPP|C:\USERS\MAGSHIMIM\DOCUMENTS\PROGRAMMING\ADVANCED PROGRAMMING\LESSON 6\PART2\PART2\QUADRILATERAL.CPP|C:\USERS\MAGSHIMIM\DOCUMENTS\PROGRAMMING\ADVANCED PROGRAMMING\LESSON 6\PART2\PART2\RECTANGLE.CPP
C:\USERS\MAGSHIMIM\DOCUMENTS\PROGRAMMING\ADVANCED PROGRAMMING\LESSON 6\PART2\PART2\DEBUG\VC141.PDB
C:\USERS\MAGSHIMIM\DOCUMENTS\PROGRAMMING\ADVANCED PROGRAMMING\LESSON 6\PART2\PART2\DEBUG\VC141.IDB
C:\USERS\MAGSHIMIM\DOCUMENTS\PROGRAMMING\ADVANCED PROGRAMMING\LESSON 6\PART2\PART2\DEBUG\RECTANGLE.OBJ
C:\USERS\MAGSHIMIM\DOCUMENTS\PROGRAMMING\ADVANCED PROGRAMMING\LESSON 6\PART2\PART2\DEBUG\QUADRILATERAL.OBJ
C:\USERS\MAGSHIMIM\DOCUMENTS\PROGRAMMING\ADVANCED PROGRAMMING\LESSON 6\PART2\PART2\DEBUG\PARALLELOGRAM.OBJ
C:\USERS\MAGSHIMIM\DOCUMENTS\PROGRAMMING\ADVANCED PROGRAMMING\LESSON 6\PART2\PART2\DEBUG\MAIN.OBJ
C:\USERS\MAGSHIMIM\DOCUMENTS\PROGRAMMING\ADVANCED PROGRAMMING\LESSON 6\PART2\PART2\DEBUG\CIRCLE.OBJ
^C:\USERS\MAGSHIMIM\DOCUMENTS\PROGRAMMING\ADVANCED PROGRAMMING\LESSON 6\PART2\PART2\RECTANGLE.CPP
C:\USERS\MAGSHIMIM\DOCUMENTS\PROGRAMMING\ADVANCED PROGRAMMING\LESSON 6\PART2\PART2\DEBUG\VC141.PDB
^C:\USERS\MAGSHIMIM\DOCUMENTS\PROGRAMMING\ADVANCED PROGRAMMING\LESSON 6\PART2\PART2\INPUTEXCEPTION.CPP|C:\USERS\MAGSHIMIM\DOCUMENTS\PROGRAMMING\ADVANCED PROGRAMMING\LESSON 6\PART2\PART2\MAIN.CPP
C:\USERS\MAGSHIMIM\DOCUMENTS\PROGRAMMING\ADVANCED PROGRAMMING\LESSON 6\PART2\PART2\DEBUG\VC141.PDB
C:\USERS\MAGSHIMIM\DOCUMENTS\PROGRAMMING\ADVANCED PROGRAMMING\LESSON 6\PART2\PART2\DEBUG\VC141.IDB
C:\USERS\MAGSHIMIM\DOCUMENTS\PROGRAMMING\ADVANCED PROGRAMMING\LESSON 6\PART2\PART2\DEBUG\MAIN.OBJ
C:\USERS\MAGSHIMIM\DOCUMENTS\PROGRAMMING\ADVANCED PROGRAMMING\LESSON 6\PART2\PART2\DEBUG\INPUTEXCEPTION.OBJ
^C:\USERS\MAGSHIMIM\DOCUMENTS\PROGRAMMING\ADVANCED PROGRAMMING\LESSON 6\PART2\PART2\INPUTEXCEPTION.CPP
C:\USERS\MAGSHIMIM\DOCUMENTS\PROGRAMMING\ADVANCED PROGRAMMING\LESSON 6\PART2\PART2\DEBUG\VC141.PDB
C:\USERS\MAGSHIMIM\DOCUMENTS\PROGRAMMING\ADVANCED PROGRAMMING\LESSON 6\PART2\PART2\DEBUG\VC141.IDB
C:\USERS\MAGSHIMIM\DOCUMENTS\PROGRAMMING\ADVANCED PROGRAMMING\LESSON 6\PART2\PART2\DEBUG\INPUTEXCEPTION.OBJ
^C:\USERS\MAGSHIMIM\DOCUMENTS\PROGRAMMING\ADVANCED PROGRAMMING\LESSON 6\PART2\PART2\CIRCLE.CPP|C:\USERS\MAGSHIMIM\DOCUMENTS\PROGRAMMING\ADVANCED PROGRAMMING\LESSON 6\PART2\PART2\MAIN.CPP|C:\USERS\MAGSHIMIM\DOCUMENTS\PROGRAMMING\ADVANCED PROGRAMMING\LESSON 6\PART2\PART2\MATHUTILS.CPP|C:\USERS\MAGSHIMIM\DOCUMENTS\PROGRAMMING\ADVANCED PROGRAMMING\LESSON 6\PART2\PART2\PARALLELOGRAM.CPP|C:\USERS\MAGSHIMIM\DOCUMENTS\PROGRAMMING\ADVANCED PROGRAMMING\LESSON 6\PART2\PART2\PENTAGON.CPP
C:\USERS\MAGSHIMIM\DOCUMENTS\PROGRAMMING\ADVANCED PROGRAMMING\LESSON 6\PART2\PART2\DEBUG\VC141.PDB
C:\USERS\MAGSHIMIM\DOCUMENTS\PROGRAMMING\ADVANCED PROGRAMMING\LESSON 6\PART2\PART2\DEBUG\VC141.IDB
C:\USERS\MAGSHIMIM\DOCUMENTS\PROGRAMMING\ADVANCED PROGRAMMING\LESSON 6\PART2\PART2\DEBUG\PENTAGON.OBJ
C:\USERS\MAGSHIMIM\DOCUMENTS\PROGRAMMING\ADVANCED PROGRAMMING\LESSON 6\PART2\PART2\DEBUG\PARALLELOGRAM.OBJ
C:\USERS\MAGSHIMIM\DOCUMENTS\PROGRAMMING\ADVANCED PROGRAMMING\LESSON 6\PART2\PART2\DEBUG\MATHUTILS.OBJ
C:\USERS\MAGSHIMIM\DOCUMENTS\PROGRAMMING\ADVANCED PROGRAMMING\LESSON 6\PART2\PART2\DEBUG\MAIN.OBJ
C:\USERS\MAGSHIMIM\DOCUMENTS\PROGRAMMING\ADVANCED PROGRAMMING\LESSON 6\PART2\PART2\DEBUG\CIRCLE.OBJ
^C:\USERS\MAGSHIMIM\DOCUMENTS\PROGRAMMING\ADVANCED PROGRAMMING\LESSON 6\PART2\PART2\MATHUTILS.CPP
C:\USERS\MAGSHIMIM\DOCUMENTS\PROGRAMMING\ADVANCED PROGRAMMING\LESSON 6\PART2\PART2\DEBUG\VC141.PDB
^C:\USERS\MAGSHIMIM\DOCUMENTS\PROGRAMMING\ADVANCED PROGRAMMING\LESSON 6\PART2\PART2\CIRCLE.CPP
C:\USERS\MAGSHIMIM\DOCUMENTS\PROGRAMMING\ADVANCED PROGRAMMING\LESSON 6\PART2\PART2\DEBUG\VC141.PDB
C:\USERS\MAGSHIMIM\DOCUMENTS\PROGRAMMING\ADVANCED PROGRAMMING\LESSON 6\PART2\PART2\DEBUG\VC141.IDB
C:\USERS\MAGSHIMIM\DOCUMENTS\PROGRAMMING\ADVANCED PROGRAMMING\LESSON 6\PART2\PART2\DEBUG\CIRCLE.OBJ
^C:\USERS\MAGSHIMIM\DOCUMENTS\PROGRAMMING\ADVANCED PROGRAMMING\LESSON 6\PART2\PART2\PARALLELOGRAM.CPP
C:\USERS\MAGSHIMIM\DOCUMENTS\PROGRAMMING\ADVANCED PROGRAMMING\LESSON 6\PART2\PART2\DEBUG\VC141.PDB
C:\USERS\MAGSHIMIM\DOCUMENTS\PROGRAMMING\ADVANCED PROGRAMMING\LESSON 6\PART2\PART2\DEBUG\VC141.IDB
C:\USERS\MAGSHIMIM\DOCUMENTS\PROGRAMMING\ADVANCED PROGRAMMING\LESSON 6\PART2\PART2\DEBUG\PARALLELOGRAM.OBJ
^C:\USERS\MAGSHIMIM\DOCUMENTS\PROGRAMMING\ADVANCED PROGRAMMING\LESSON 6\PART2\PART2\HEXAGON.CPP|C:\USERS\MAGSHIMIM\DOCUMENTS\PROGRAMMING\ADVANCED PROGRAMMING\LESSON 6\PART2\PART2\QUADRILATERAL.CPP
C:\USERS\MAGSHIMIM\DOCUMENTS\PROGRAMMING\ADVANCED PROGRAMMING\LESSON 6\PART2\PART2\DEBUG\VC141.PDB
C:\USERS\MAGSHIMIM\DOCUMENTS\PROGRAMMING\ADVANCED PROGRAMMING\LESSON 6\PART2\PART2\DEBUG\VC141.IDB
C:\USERS\MAGSHIMIM\DOCUMENTS\PROGRAMMING\ADVANCED PROGRAMMING\LESSON 6\PART2\PART2\DEBUG\QUADRILATERAL.OBJ
C:\USERS\MAGSHIMIM\DOCUMENTS\PROGRAMMING\ADVANCED PROGRAMMING\LESSON 6\PART2\PART2\DEBUG\HEXAGON.OBJ
^C:\USERS\MAGSHIMIM\DOCUMENTS\PROGRAMMING\ADVANCED PROGRAMMING\LESSON 6\PART2\PART2\QUADRILATERAL.CPP
C:\USERS\MAGSHIMIM\DOCUMENTS\PROGRAMMING\ADVANCED PROGRAMMING\LESSON 6\PART2\PART2\DEBUG\VC141.PDB
^C:\USERS\MAGSHIMIM\DOCUMENTS\PROGRAMMING\ADVANCED PROGRAMMING\LESSON 6\PART2\PART2\HEXAGON.CPP|C:\USERS\MAGSHIMIM\DOCUMENTS\PROGRAMMING\ADVANCED PROGRAMMING\LESSON 6\PART2\PART2\MAIN.CPP|C:\USERS\MAGSHIMIM\DOCUMENTS\PROGRAMMING\ADVANCED PROGRAMMING\LESSON 6\PART2\PART2\PENTAGON.CPP
C:\USERS\MAGSHIMIM\DOCUMENTS\PROGRAMMING\ADVANCED PROGRAMMING\LESSON 6\PART2\PART2\DEBUG\VC141.PDB
C:\USERS\MAGSHIMIM\DOCUMENTS\PROGRAMMING\ADVANCED PROGRAMMING\LESSON 6\PART2\PART2\DEBUG\VC141.IDB
C:\USERS\MAGSHIMIM\DOCUMENTS\PROGRAMMING\ADVANCED PROGRAMMING\LESSON 6\PART2\PART2\DEBUG\MAIN.OBJ
C:\USERS\MAGSHIMIM\DOCUMENTS\PROGRAMMING\ADVANCED PROGRAMMING\LESSON 6\PART2\PART2\DEBUG\PENTAGON.OBJ
C:\USERS\MAGSHIMIM\DOCUMENTS\PROGRAMMING\ADVANCED PROGRAMMING\LESSON 6\PART2\PART2\DEBUG\HEXAGON.OBJ
^C:\USERS\MAGSHIMIM\DOCUMENTS\PROGRAMMING\ADVANCED PROGRAMMING\LESSON 6\PART2\PART2\HEXAGON.CPP
C:\USERS\MAGSHIMIM\DOCUMENTS\PROGRAMMING\ADVANCED PROGRAMMING\LESSON 6\PART2\PART2\DEBUG\VC141.PDB
^C:\USERS\MAGSHIMIM\DOCUMENTS\PROGRAMMING\ADVANCED PROGRAMMING\LESSON 6\PART2\PART2\PENTAGON.CPP
C:\USERS\MAGSHIMIM\DOCUMENTS\PROGRAMMING\ADVANCED PROGRAMMING\LESSON 6\PART2\PART2\DEBUG\VC141.PDB
^C:\USERS\MAGSHIMIM\DOCUMENTS\PROGRAMMING\ADVANCED PROGRAMMING\LESSON 6\PART2\PART2\MAIN.CPP
C:\USERS\MAGSHIMIM\DOCUMENTS\PROGRAMMING\ADVANCED PROGRAMMING\LESSON 6\PART2\PART2\DEBUG\VC141.PDB
